Creates a data frame that is a summary table of counts and percentages — dataVizCleaning • blackstone
…
#>  9 Research     Minimal           2           0.222 22%                  
#> 10 Research     Slight            2           0.222 22%                  
#> 11 Research     Moderate          2           0.222 22%                  
#> 12 Research     Good              3           0.333 33%                  
#> 13 Source       Minimal           1           0.111 11%                  
#> 14 Source       Slight            4           0.444 44%                  
#> 15 Source       Moderate          2           0.222 22%                  
#> 16 Source       Good              1           0.111 11%                  
#> 17 Source       Extensive         1           0.111 11%                  
#> 18 Write        Slight            3           0.333 33%                  
#> 19 Write        Moderate          3           0.333 33%                  
#> 20 Write        Good              3           0.333 33%                  
dataVizCleaning(df = items_single_na, pre_post = FALSE,
                scale_labels = levels_min_ext, na_remove = FALSE)
#> # A tibble: 25 × 5
#>    question     response  n_answers percent_answers percent_answers_label
#>    <chr>        <fct>         <int>           <dbl> <chr>                
#>  1 Organization Missing           1             0.1 10%                  
#>  2 Organization Minimal           2             0.2 20%                  
#>  3 Organization Slight            2             0.2 20%                  
#>  4 Organization Moderate          2             0.2 20%                  
#>  5 Organization Good              2             0.2 20%                  
#>  6 Organization Extensive         1             0.1 10%                  
#>  7 Publish      Missing           1             0.1 10%                  
#>  8 Publish      Minimal           3             0.3 30%                  
#>  9 Publish      Slight            3             0.3 30%                  
#> 10 Publish      Moderate          3             0.3 30%                  
#> # ℹ 15 more rows
dataVizCleaning(df = items_pre_post, pre_post = TRUE,
                scale_labels = levels_min_ext, na_remove = TRUE)
#> # A tibble: 37 × 6
#>    question     timing response  n_answers percent_answers percent_answers_label
#>    <chr>        <fct>  <fct>         <int>           <dbl> <chr>                
#>  1 Organization Pre    Minimal           2           0.222 22%                  
#>  2 Organization Pre    Slight            2           0.222 22%                  
#>  3 Organization Pre    Moderate          2           0.222 22%                  
#>  4 Organization Pre    Good              2           0.222 22%                  
#>  5 Organization Pre    Extensive         1           0.111 11%                  
#>  6 Organization Post   Slight            2           0.222 22%                  
#>  7 Organization Post   Moderate          2           0.222 22%                  
#>  8 Organization Post   Good              2           0.222 22%                  
#>  9 Organization Post   Extensive         3           0.333 33%                  
#> 10 Publish      Pre    Minimal           3           0.333 33%                  
#> # ℹ 27 more rows
dataVizCleaning(df = items_pre_post_na, pre_post = TRUE,
                scale_labels = levels_min_ext, na_remove = FALSE)
#> # A tibble: 47 × 6
#>    question     timing response  n_answers percent_answers percent_answers_label
#>    <chr>        <fct>  <fct>         <int>           <dbl> <chr>                
#>  1 Organization Pre    Missing           1             0.1 10%                  
#>  2 Organization Pre    Minimal           2             0.2 20%                  
#>  3 Organization Pre    Slight            2             0.2 20%                  
#>  4 Organization Pre    Moderate          2             0.2 20%                  
#>  5 Organization Pre    Good              2             0.2 20%                  
#>  6 Organization Pre    Extensive         1             0.1 10%                  
#>  7 Organization Post   Missing           1             0.1 10%                  
#>  8 Organization Post   Slight            2             0.2 20%                  
#>  9 Organization Post   Moderate          2             0.2 20%                  
#> 10 Organization Post   Good              2             0.2 20%                  
#> # ℹ 37 more rows
…
