Introduction to blackstone • blackstone
…
Here is how to import data from SurveyMonkey using example data
provided with blackstone, this is a fake dataset of a pre
(baseline) survey.

There are three steps to this process:

Create a codebook.

# File path for pre example data:
pre_data_fp <- blackstone::blackstoneExample("sm_data_pre.csv")
# 1. Create the codebook:
codebook_pre <- blackstone::createCodebook(pre_data_fp)
codebook_pre
#> # A tibble: 33 × 5
#>   header_1      header_2 combined_header position variable_name
#>   <chr>         <chr>    <chr>              <int> <chr>        
#> 1 Respondent ID NA       Respondent ID          1 respondent_id
#> 2 Collector ID  NA       Collector ID           2 collector_id 
#> 3 Start Date    NA       Start Date             3 start_date   
#> 4 End Date      NA       End Date               4 end_date     
#> 5 IP Address    NA       IP Address             5 ip_address   
#> # ℹ 28 more rows
…
        variable_name, # column to match
        'custom_data_1' ~ "unique_id", # changes 'custom_data_1' to "unique_id"
        'to_what_extent_are_you_knowledgeable_in_conducting_research_in_your_field_of_study' ~ "knowledge",
        'with_which_gender_do_you_most_closely_identify' ~ "gender",
        'what_is_your_current_role_in_the_program' ~ "role",
        'which_race_ethnicity_best_describes_you_please_choose_only_one' ~ "ethnicity",
        'are_you_a_first_generation_college_student' ~ "first_gen",
        names(research_names) ~ research_names[variable_name], # takes the above named vector and when the name matches, applies new value in that position as replacement.
        names(ability_names) ~ ability_names[variable_name],   # Same for `ability_names`
        names(ethics_names) ~ ethics_names[variable_name],   # Same for `ability_names`
        .default = variable_name # returns default value from original `variable_name` if not changed.
        )
    )
codebook_pre
#> # A tibble: 33 × 5
#>   header_1      header_2 combined_header position variable_name
#>   <chr>         <chr>    <chr>              <int> <chr>        
#> 1 Respondent ID NA       Respondent ID          1 respondent_id
#> 2 Collector ID  NA       Collector ID           2 collector_id 
#> 3 Start Date    NA       Start Date             3 start_date   
#> 4 End Date      NA       End Date               4 end_date     
#> 5 IP Address    NA       IP Address             5 ip_address   
#> # ℹ 28 more rows
# Write out the edited codebook to save for future use-
# Be sure to double check questions match new names before writing out:
# readr::write_csv(codebook_pre, file = "{filepath-to-codebok}")

Read in the data and rename the variables with the codebook.

# 3. Read in the data and rename the vars using readRenameData(), passing the file path and the edited codebook:
pre_data <- blackstone::readRenameData(pre_data_fp, codebook = codebook_pre)
pre_data
#> # A tibble: 100 × 33
#>   respondent_id collector_id start_date end_date   ip_address      email_address
#>           <dbl>        <dbl> <date>     <date>     <chr>           <chr>        
#> 1  114628000001    431822954 2024-06-11 2024-06-12 227.224.138.113 coraima59@me…
#> 2  114628000002    431822954 2024-06-08 2024-06-09 110.241.132.50  mstamm@hermi…
#> 3  114628000003    431822954 2024-06-21 2024-06-22 165.58.112.64   precious.fei…
#> 4  114628000004    431822954 2024-06-08 2024-06-09 49.34.121.147   ines52@gmail…
#> 5  114628000005    431822954 2024-06-02 2024-06-03 115.233.66.80   franz44@hotm…
#> # ℹ 95 more rows
#> # ℹ 27 more variables: first_name <chr>, last_name <chr>, unique_id <dbl>,
#> #   knowledge <chr>, research_1 <chr>, research_2 <chr>, research_3 <chr>,
#> #   research_4 <chr>, research_5 <chr>, research_6 <chr>, research_7 <chr>,
#> #   research_8 <chr>, ability_1 <chr>, ability_2 <chr>, ability_3 <chr>,
#> #   ability_4 <chr>, ability_5 <chr>, ability_6 <chr>, ethics_1 <chr>,
#> #   ethics_2 <chr>, ethics_3 <chr>, ethics_4 <chr>, ethics_5 <chr>, …
…
                                     dplyr::across(tidyselect::contains("research_"), ~ factor(., levels = levels_confidence)), 
                                     dplyr::across(tidyselect::contains("research_"), as.numeric, .names = "{.col}_num"), # create new numeric items for all research items
                                     dplyr::across(tidyselect::contains("ability_"), ~ factor(., levels = levels_min_ext)),
                                     dplyr::across(tidyselect::contains("ability_"), as.numeric, .names = "{.col}_num"), # create new numeric items for all ability items
                                     # select ethics items but not the open_ended responses:
                                     dplyr::across(tidyselect::contains("ethics_") & !tidyselect::contains("_oe"), ~ factor(., levels = levels_agree5)),
                                     dplyr::across(tidyselect::contains("ethics_") & !tidyselect::contains("_oe"), as.numeric, .names = "{.col}_num"), # new numeric items for all ethics items
                                     # individually convert all demographics to factor variables:
                                     gender = factor(gender, levels = gender_levels),
                                     role = factor(role, levels = role_levels),
                                     ethnicity = factor(ethnicity, levels = ethnicity_levels),
                                     first_gen = factor(first_gen, levels = first_gen_levels),
                                     )
sm_data
#> # A tibble: 100 × 98
#>   respondent_id collector_id start_date end_date   ip_address      email_address
#>           <dbl>        <dbl> <date>     <date>     <chr>           <chr>        
#> 1  114628000001    431822954 2024-06-11 2024-06-12 227.224.138.113 coraima59@me…
#> 2  114628000002    431822954 2024-06-08 2024-06-09 110.241.132.50  mstamm@hermi…
#> 3  114628000003    431822954 2024-06-21 2024-06-22 165.58.112.64   precious.fei…
#> 4  114628000004    431822954 2024-06-08 2024-06-09 49.34.121.147   ines52@gmail…
#> 5  114628000005    431822954 2024-06-02 2024-06-03 115.233.66.80   franz44@hotm…
#> # ℹ 95 more rows
#> # ℹ 92 more variables: first_name <chr>, last_name <chr>, unique_id <dbl>,
#> #   pre_knowledge <fct>, pre_research_1 <fct>, pre_research_2 <fct>,
#> #   pre_research_3 <fct>, pre_research_4 <fct>, pre_research_5 <fct>,
#> #   pre_research_6 <fct>, pre_research_7 <fct>, pre_research_8 <fct>,
#> #   pre_ability_1 <fct>, pre_ability_2 <fct>, pre_ability_3 <fct>,
#> #   pre_ability_4 <fct>, pre_ability_5 <fct>, pre_ability_6 <fct>, …
…
