Importing and Cleaning Data • blackstone
…
Edit and save the codebook to create meaningful variable names.

Read in the data and rename the variables with the codebook.

Pre Survey Data

1. Creating the codebook

# File path for pre example data:
pre_data_fp <- blackstone::blackstoneExample("sm_data_pre.csv")
# 1. Create the codebook:
codebook_pre <- blackstone::createCodebook(pre_data_fp)
codebook_pre
#> # A tibble: 32 × 5
#>   header_1      header_2 combined_header position variable_name
#>   <chr>         <chr>    <chr>              <int> <chr>        
#> 1 Respondent ID NA       Respondent ID          1 respondent_id
#> 2 Collector ID  NA       Collector ID           2 collector_id 
#> 3 Start Date    NA       Start Date             3 start_date   
#> 4 End Date      NA       End Date               4 end_date     
#> 5 IP Address    NA       IP Address             5 ip_address   
#> # ℹ 27 more rows
…
    variable_name = dplyr::case_match(
        variable_name, # column to match
        'custom_data_1' ~ "unique_id", # changes 'custom_data_1' to "unique_id"
        'to_what_extent_are_you_knowledgeable_in_conducting_research_in_your_field_of_study' ~ "knowledge",
        'with_which_gender_do_you_most_closely_identify' ~ "gender",
        'which_race_ethnicity_best_describes_you_please_choose_only_one' ~ "ethnicity",
        'are_you_a_first_generation_college_student' ~ "first_gen",
        names(research_names) ~ research_names[variable_name], # takes the above named vector and when the name matches, applies new value in that position as replacement.
        names(ability_names) ~ ability_names[variable_name],   # Same for `ability_names`
        names(ethics_names) ~ ethics_names[variable_name],   # Same for `ability_names`
        .default = variable_name # returns default value from original `variable_name` if not changed.
        )
    )
codebook_pre
#> # A tibble: 32 × 5
#>   header_1      header_2 combined_header position variable_name
#>   <chr>         <chr>    <chr>              <int> <chr>        
#> 1 Respondent ID NA       Respondent ID          1 respondent_id
#> 2 Collector ID  NA       Collector ID           2 collector_id 
#> 3 Start Date    NA       Start Date             3 start_date   
#> 4 End Date      NA       End Date               4 end_date     
#> 5 IP Address    NA       IP Address             5 ip_address   
#> # ℹ 27 more rows

# Write out the edited codebook to save for future use-
# Be sure to double check questions match new names before writing out:
# readr::write_csv(codebook_pre, file = "{filepath-to-codebok}")

3. Import the Data and Rename the Variables with the Codebook

# 3. Read in the data and rename the vars using readRenameData(), passing the file path and the edited codebook:
pre_data <- blackstone::readRenameData(pre_data_fp, codebook = codebook_pre)
pre_data
#> # A tibble: 100 × 32
#>   respondent_id collector_id start_date end_date   ip_address      email_address
#>           <dbl>        <dbl> <date>     <date>     <chr>           <chr>        
#> 1  114628000001    431822954 2024-06-05 2024-06-06 227.224.138.113 coraima59@me…
#> 2  114628000002    431822954 2024-06-21 2024-06-22 110.241.132.50  mstamm@hermi…
#> 3  114628000003    431822954 2024-06-14 2024-06-15 165.58.112.64   precious.fei…
#> 4  114628000004    431822954 2024-06-15 2024-06-16 49.34.121.147   ines52@gmail…
#> 5  114628000005    431822954 2024-06-15 2024-06-16 115.233.66.80   franz44@hotm…
#> # ℹ 95 more rows
#> # ℹ 26 more variables: first_name <chr>, last_name <chr>, unique_id <dbl>,
#> #   knowledge <chr>, research_1 <chr>, research_2 <chr>, research_3 <chr>,
#> #   research_4 <chr>, research_5 <chr>, research_6 <chr>, research_7 <chr>,
#> #   research_8 <chr>, ability_1 <chr>, ability_2 <chr>, ability_3 <chr>,
#> #   ability_4 <chr>, ability_5 <chr>, ability_6 <chr>, ethics_1 <chr>,
#> #   ethics_2 <chr>, ethics_3 <chr>, ethics_4 <chr>, ethics_5 <chr>, …
…
Post Survey Data

Do that same process over again with the post data, if the
variables are all the same you can use the same codebook.

For this example there are additional post variables so a new
codebook will need to be created to rename the variables when reading in
the data with readRenameData().

# File path for pre example data:
post_data_fp <- blackstone::blackstoneExample("sm_data_post.csv")
# 1. Create the codebook using the filepath:
codebook_post <- blackstone::createCodebook(post_data_fp)
codebook_post
#> # A tibble: 37 × 5
#>   header_1      header_2 combined_header position variable_name
#>   <chr>         <chr>    <chr>              <int> <chr>        
#> 1 Respondent ID NA       Respondent ID          1 respondent_id
#> 2 Collector ID  NA       Collector ID           2 collector_id 
#> 3 Start Date    NA       Start Date             3 start_date   
#> 4 End Date      NA       End Date               4 end_date     
#> 5 IP Address    NA       IP Address             5 ip_address   
#> # ℹ 32 more rows
…
        variable_name, # column to match
        'custom_data_1' ~ "unique_id", # changes 'custom_data_1' to "unique_id"
        'to_what_extent_are_you_knowledgeable_in_conducting_research_in_your_field_of_study' ~ "knowledge",
        'with_which_gender_do_you_most_closely_identify' ~ "gender",
        'which_race_ethnicity_best_describes_you_please_choose_only_one' ~ "ethnicity",
        'are_you_a_first_generation_college_student' ~ "first_gen",
        names(research_names) ~ research_names[variable_name], # takes the above named vector and when the name matches, applies new value in that position as replacement.
        names(ability_names) ~ ability_names[variable_name],   # Same for `ability_names`
        names(ethics_names) ~ ethics_names[variable_name],   # Same for `ability_names`
        names(ethics_names_oe) ~ ethics_names_oe[variable_name],   # Same for `ethics_names_oe`
        .default = variable_name # returns default value from original `variable_name` if not changed.
        )
    )
codebook_post
#> # A tibble: 37 × 5
#>   header_1      header_2 combined_header position variable_name
#>   <chr>         <chr>    <chr>              <int> <chr>        
#> 1 Respondent ID NA       Respondent ID          1 respondent_id
#> 2 Collector ID  NA       Collector ID           2 collector_id 
#> 3 Start Date    NA       Start Date             3 start_date   
#> 4 End Date      NA       End Date               4 end_date     
#> 5 IP Address    NA       IP Address             5 ip_address   
#> # ℹ 32 more rows
# Write out the edited codebook to save for future use-
# Be sure to double check questions match new names before writing out:
# readr::write_csv(codebook_post, file = "{filepath-to-codebok}")
# 3. Read in the data and rename the vars using readRenameData(), passing the file path and the edited codebook:
post_data <- blackstone::readRenameData(post_data_fp, codebook = codebook_post)
post_data
#> # A tibble: 100 × 37
#>   respondent_id collector_id start_date end_date   ip_address      email_address
#>           <dbl>        <dbl> <date>     <date>     <chr>           <chr>        
#> 1  114628000001    431822954 2024-06-05 2024-06-06 227.224.138.113 coraima59@me…
#> 2  114628000002    431822954 2024-06-21 2024-06-22 110.241.132.50  mstamm@hermi…
#> 3  114628000003    431822954 2024-06-14 2024-06-15 165.58.112.64   precious.fei…
#> 4  114628000004    431822954 2024-06-15 2024-06-16 49.34.121.147   ines52@gmail…
#> 5  114628000005    431822954 2024-06-15 2024-06-16 115.233.66.80   franz44@hotm…
#> # ℹ 95 more rows
#> # ℹ 31 more variables: first_name <chr>, last_name <chr>, unique_id <dbl>,
#> #   knowledge <chr>, research_1 <chr>, research_2 <chr>, research_3 <chr>,
#> #   research_4 <chr>, research_5 <chr>, research_6 <chr>, research_7 <chr>,
#> #   research_8 <chr>, ability_1 <chr>, ability_2 <chr>, ability_3 <chr>,
#> #   ability_4 <chr>, ability_5 <chr>, ability_6 <chr>, ethics_1 <chr>,
#> #   ethics_2 <chr>, ethics_3 <chr>, ethics_4 <chr>, ethics_5 <chr>, …
…
The dplyr package has many joining
functions, the most commonly use is dplyr::left_join()
which keeps all the observations from the first table provided and
merges all observations from the second that match.

For most data analysis, we will want to use the post data as the
primary table and merge all the pre data since most post surveys drop
some participants, so we can run our analysis on complete data.

# left_join() will automatically join by all the shared columns, be sure to include all shared variables that should be identical pre-post to the 'by = join_by()' as an arg
# (otherwise you will get a message about additional variables to be joined by):
sm_data <- post_data %>% dplyr::left_join(pre_data, by = dplyr::join_by(respondent_id, collector_id, start_date, end_date, ip_address, email_address, 
                                                                        first_name, last_name, unique_id, gender, ethnicity, first_gen))
sm_data
#> # A tibble: 100 × 57
#>   respondent_id collector_id start_date end_date   ip_address      email_address
#>           <dbl>        <dbl> <date>     <date>     <chr>           <chr>        
#> 1  114628000001    431822954 2024-06-05 2024-06-06 227.224.138.113 coraima59@me…
#> 2  114628000002    431822954 2024-06-21 2024-06-22 110.241.132.50  mstamm@hermi…
#> 3  114628000003    431822954 2024-06-14 2024-06-15 165.58.112.64   precious.fei…
#> 4  114628000004    431822954 2024-06-15 2024-06-16 49.34.121.147   ines52@gmail…
#> 5  114628000005    431822954 2024-06-15 2024-06-16 115.233.66.80   franz44@hotm…
#> # ℹ 95 more rows
#> # ℹ 51 more variables: first_name <chr>, last_name <chr>, unique_id <dbl>,
#> #   post_knowledge <chr>, post_research_1 <chr>, post_research_2 <chr>,
#> #   post_research_3 <chr>, post_research_4 <chr>, post_research_5 <chr>,
#> #   post_research_6 <chr>, post_research_7 <chr>, post_research_8 <chr>,
#> #   post_ability_1 <chr>, post_ability_2 <chr>, post_ability_3 <chr>,
#> #   post_ability_4 <chr>, post_ability_5 <chr>, post_ability_6 <chr>, …
…
                                     dplyr::across(tidyselect::contains("_knowledge"), as.numeric, .names = "{.col}_num"), # create new numeric items for all knowledge items
                                     dplyr::across(tidyselect::contains("research_"), ~ factor(., levels = levels_confidence)), 
                                     dplyr::across(tidyselect::contains("research_"), as.numeric, .names = "{.col}_num"), # create new numeric items for all research items
                                     dplyr::across(tidyselect::contains("ability_"), ~ factor(., levels = levels_min_ext)),
                                     dplyr::across(tidyselect::contains("ability_"), as.numeric, .names = "{.col}_num"), # create new numeric items for all ability items
                                     # select ethics items but not the open_ended responses:
                                     dplyr::across(tidyselect::contains("ethics_") & !tidyselect::contains("_oe"), ~ factor(., levels = levels_agree5)),
                                     dplyr::across(tidyselect::contains("ethics_") & !tidyselect::contains("_oe"), as.numeric, .names = "{.col}_num"), # new numeric items for all ethics items
                                     # individually convert all demographics to factor variables:
                                     gender = factor(gender, levels = gender_levels),
                                     ethnicity = factor(ethnicity, levels = ethnicity_levels),
                                     first_gen = factor(first_gen, levels = first_gen_levels),
                                     )
sm_data
#> # A tibble: 100 × 97
#>   respondent_id collector_id start_date end_date   ip_address      email_address
#>           <dbl>        <dbl> <date>     <date>     <chr>           <chr>        
#> 1  114628000001    431822954 2024-06-05 2024-06-06 227.224.138.113 coraima59@me…
#> 2  114628000002    431822954 2024-06-21 2024-06-22 110.241.132.50  mstamm@hermi…
#> 3  114628000003    431822954 2024-06-14 2024-06-15 165.58.112.64   precious.fei…
#> 4  114628000004    431822954 2024-06-15 2024-06-16 49.34.121.147   ines52@gmail…
#> 5  114628000005    431822954 2024-06-15 2024-06-16 115.233.66.80   franz44@hotm…
#> # ℹ 95 more rows
#> # ℹ 91 more variables: first_name <chr>, last_name <chr>, unique_id <dbl>,
#> #   post_knowledge <fct>, post_research_1 <fct>, post_research_2 <fct>,
#> #   post_research_3 <fct>, post_research_4 <fct>, post_research_5 <fct>,
#> #   post_research_6 <fct>, post_research_7 <fct>, post_research_8 <fct>,
#> #   post_ability_1 <fct>, post_ability_2 <fct>, post_ability_3 <fct>,
#> #   post_ability_4 <fct>, post_ability_5 <fct>, post_ability_6 <fct>, …
…
